{
	"info": {
		"_postman_id": "105ae2d6-c024-42a7-b7b3-2d31b9cfeff1",
		"name": "Pokemon",
		"schema": "https://schema.getpostman.com/json/collection/v2.1.0/collection.json"
	},
	"item": [
		{
			"name": "Probability",
			"request": {
				"method": "GET",
				"header": [],
				"url": {
					"raw": "http://localhost:8085/api/pokemon/probability",
					"protocol": "http",
					"host": [
						"localhost"
					],
					"port": "8085",
					"path": [
						"api",
						"pokemon",
						"probability"
					]
				}
			},
			"response": []
		},
		{
			"name": "Rename",
			"request": {
				"method": "GET",
				"header": [],
				"url": {
					"raw": "http://localhost:8085/api/pokemon/rename/0/pikachu",
					"protocol": "http",
					"host": [
						"localhost"
					],
					"port": "8085",
					"path": [
						"api",
						"pokemon",
						"rename",
						"0",
						"pikachu"
					]
				}
			},
			"response": []
		},
		{
			"name": "Release",
			"request": {
				"method": "GET",
				"header": [],
				"url": {
					"raw": "http://localhost:8085/api/pokemon/release",
					"protocol": "http",
					"host": [
						"localhost"
					],
					"port": "8085",
					"path": [
						"api",
						"pokemon",
						"release"
					]
				}
			},
			"response": []
		}
	]
}